<svg width="16" height="16" viewBox="0 0 16 16" fill="none" xmlns="http://www.w3.org/2000/svg">
<path d="M7.73157 0.643555L7.12457 4.36932L8.30611 4.56182L8.9131 0.836048L7.73157 0.643555Z" fill="black"/>
<path d="M13.7028 0.918043L9.55328 5.08643L10.4017 5.93098L14.5512 1.76259L13.7028 0.918043Z" fill="black"/>
<path d="M13.6148 6.16316L10.7799 7.04459L11.1353 8.1877L13.9702 7.30626L13.6148 6.16316Z" fill="black"/>
<path d="M3.60082 9.07634L1.08691 11.6381L4.1435 14.8463L6.72125 12.1808L12.1321 10.8161L4.89368 3.54575L3.60082 9.07634ZM4.1435 13.1225L2.74689 11.6541L4.1435 10.2255L5.56405 11.6541L4.1435 13.1225ZM9.79379 10.1697L6.58558 10.9837L4.79791 9.18807L5.55607 5.92399L9.79379 10.1697Z" fill="black"/>
</svg>
